…
devtools::install_github("jbengler/tidyheatmap")
```

## Example

Given a tidy data frame of gene expression data like `data_exprs`, you
can easily generate a basic heatmap.

``` r
library(tidyheatmap)

data_exprs
#> # A tibble: 800 x 12
#>    ensembl_gene_id external_gene_n… Eip_vs_Hip.padj direction is_immune_gene
#>    <chr>           <chr>                      <dbl> <chr>     <chr>         
#>  1 ENSMUSG0000003… Apol6                   3.79e-28 up        no            
#>  2 ENSMUSG0000003… Apol6                   3.79e-28 up        no            
#>  3 ENSMUSG0000003… Apol6                   3.79e-28 up        no            
#>  4 ENSMUSG0000003… Apol6                   3.79e-28 up        no            
#>  5 ENSMUSG0000003… Apol6                   3.79e-28 up        no            
#>  6 ENSMUSG0000003… Apol6                   3.79e-28 up        no            
#>  7 ENSMUSG0000003… Apol6                   3.79e-28 up        no            
#>  8 ENSMUSG0000003… Apol6                   3.79e-28 up        no            
#>  9 ENSMUSG0000003… Apol6                   3.79e-28 up        no            
#> 10 ENSMUSG0000003… Apol6                   3.79e-28 up        no            
#> # … with 790 more rows, and 7 more variables: count_type <chr>, group <chr>,
#> #   replicate <chr>, expression <dbl>, sample <chr>, sample_type <chr>,
#> #   condition <chr>
…
