Get started • tidyheatmap
…
tidyheatmap provides a tidyverse-style interface to the powerful heatmap package pheatmap by @raivokolde. Although heatmaps can be generated via ggplot2::geom_tile(), it is hard to reach the versatility and beauty of a genuine heatmap function like pheatmap::pheatmap().

library(tidyverse)
library(tidyheatmap)

Data requirements

tidy_heatmap() requires tidy data in long format, see tidyverse.

As an example we will use the gene expression data set data_exprs. In the tidyverse lingo the columns of a data frame are called variables. One of these variables named expression contains the numeric values to be color-coded in the heatmap. Furthermore we will use the variables sample for heatmap columns and external_gene_name for heatmap rows.

data_exprs
#> # A tibble: 800 x 12
#>    ensembl_gene_id external_gene_n… Eip_vs_Hip.padj direction is_immune_gene
#>    <chr>           <chr>                      <dbl> <chr>     <chr>         
#>  1 ENSMUSG0000003… Apol6                   3.79e-28 up        no            
#>  2 ENSMUSG0000003… Apol6                   3.79e-28 up        no            
#>  3 ENSMUSG0000003… Apol6                   3.79e-28 up        no            
#>  4 ENSMUSG0000003… Apol6                   3.79e-28 up        no            
#>  5 ENSMUSG0000003… Apol6                   3.79e-28 up        no            
#>  6 ENSMUSG0000003… Apol6                   3.79e-28 up        no            
#>  7 ENSMUSG0000003… Apol6                   3.79e-28 up        no            
#>  8 ENSMUSG0000003… Apol6                   3.79e-28 up        no            
#>  9 ENSMUSG0000003… Apol6                   3.79e-28 up        no            
#> 10 ENSMUSG0000003… Apol6                   3.79e-28 up        no            
#> # … with 790 more rows, and 7 more variables: count_type <chr>, group <chr>,
#> #   replicate <chr>, expression <dbl>, sample <chr>, sample_type <chr>,
#> #   condition <chr>
…
